[nss:256]
OK.
OK (EC:256).
[nss:384]
OK.
OK (EC:384).
[nss:521]
OK.
OK (EC:521).
[nss:rosubdir]
Failed to save NSS:${tmpdir}/rosubdir: need fs permissions.
[nss:rwsubdir]
Failed to save NSS:${tmpdir}/rwsubdir: need fs permissions.
[openssl:256]
OK.
OK (EC:256).
[openssl:384]
OK.
OK (EC:384).
[openssl:521]
OK.
OK (EC:521).
[openssl:rosubdir]
Failed to save FILE:${tmpdir}/rosubdir/sample.521: need fs permissions.
[openssl:rwsubdir]
Failed to save FILE:${tmpdir}/rwsubdir/sample.521: need fs permissions.
Test complete.
